{
  "total" : 1,
  "items" : [ {
    "uid" : "7ed0890146477084554fa649ad2f047b",
    "name" : "practice",
    "statistic" : {
      "failed" : 0,
      "broken" : 0,
      "skipped" : 0,
      "passed" : 1,
      "unknown" : 0,
      "total" : 1
    }
  } ]
}